<svg
   xmlns:dc="http://purl.org/dc/elements/1.1/"
   xmlns:cc="http://creativecommons.org/ns#"
   xmlns:rdf="http://www.w3.org/1999/02/22-rdf-syntax-ns#"
   xmlns:svg="http://www.w3.org/2000/svg"
   xmlns="http://www.w3.org/2000/svg"
   version="1.1"   width="30"   height="20"   id="jaskinia">
		<path d="M2,19 l26,0" fill="none" stroke="param(outline) #000" stroke-width="param(outline-width) 2"/>
		<path d="M4,19 S15,1 26,19" fill="none" stroke="param(outline) #000" stroke-width="param(outline-width) 1"/>
		<path d="M8,19 S15,6 22,19 Z" fill="param(fill) #000" stroke="none" stroke-width="none"/>
</svg>
